…
instacart = 
  instacart |> 
  as_tibble()
```

Q1: How many aisles are there, and which aisles are the most items
ordered from?

``` r
instacart |> 
  count(aisle) |> 
  arrange(desc(n))
```

    ## # A tibble: 134 × 2
    ##    aisle                              n
    ##    <chr>                          <int>
    ##  1 fresh vegetables              150609
    ##  2 fresh fruits                  150473
    ##  3 packaged vegetables fruits     78493
    ##  4 yogurt                         55240
    ##  5 packaged cheese                41699
    ##  6 water seltzer sparkling water  36617
    ##  7 milk                           32644
    ##  8 chips pretzels                 31269
    ##  9 soy lactosefree                26240
    ## 10 bread                          23635
    ## # ℹ 124 more rows
…
### 2) Using this dataset, do or answer the following (commenting on the results of each):

### Q1:

In 2002, which states were observed at 7 or more locations? What about
in 2010?

``` r
hw4_data |>
  group_by(state, year) |>
  summarize(n_locations = n()) |> 
  filter(n_locations >= 7 & year== 2002 | n_locations >= 7 & year== 2010)
```

    ## # A tibble: 81 × 3
    ## # Groups:   state [45]
    ##    state  year n_locations
    ##    <chr> <int>       <int>
    ##  1 AL     2010          15
    ##  2 AR     2010          15
    ##  3 AZ     2002          10
    ##  4 AZ     2010          15
    ##  5 CA     2010          60
    ##  6 CO     2002          20
    ##  7 CO     2010          35
    ##  8 CT     2002          35
    ##  9 CT     2010          25
    ## 10 DE     2002          15
    ## # ℹ 71 more rows
…
